Homework 4
…
ℹ Use `spec()` to retrieve the full column specification for this data.
ℹ Specify the column types or set `show_col_types = FALSE` to quiet this message.

df$Survived <- as.factor(df$Survived)
df$Pclass <- as.factor(df$Pclass) 
df$Sex <- as.factor(df$Sex) 
df <- df %>% rename('y' = 'Survived')
names(df)[2:8] <- tolower(names(df)[2:8])
df

# A tibble: 887 × 8
   y     pclass name   sex     age siblings/spouses abo…¹ parents/children abo…²
   <fct> <fct>  <chr>  <fct> <dbl>                  <dbl>                  <dbl>
 1 0     3      Mr. O… male     22                      1                      0
 2 1     1      Mrs. … fema…    38                      1                      0
 3 1     3      Miss.… fema…    26                      0                      0
 4 1     1      Mrs. … fema…    35                      1                      0
 5 0     3      Mr. W… male     35                      0                      0
 6 0     3      Mr. J… male     27                      0                      0
 7 0     1      Mr. T… male     54                      0                      0
 8 0     3      Maste… male      2                      3                      1
 9 1     3      Mrs. … fema…    27                      0                      2
10 1     2      Mrs. … fema…    14                      1                      0
# ℹ 877 more rows
# ℹ abbreviated names: ¹​`siblings/spouses aboard`, ²​`parents/children aboard`
# ℹ 1 more variable: fare <dbl>
…
